<?xml version="1.0" encoding="utf-8"?>
<!-- Generator: Adobe Illustrator 19.0.0, SVG Export Plug-In . SVG Version: 6.00 Build 0)  -->
<svg version="1.1" id="Capa_1" xmlns="http://www.w3.org/2000/svg" xmlns:xlink="http://www.w3.org/1999/xlink" x="0px" y="0px"
	 viewBox="182.1 502.7 66 37.8" style="enable-background:new 182.1 502.7 66 37.8;" xml:space="preserve">
<style type="text/css">
	.st0{fill:#FAAC67;}
	.st1{fill:#002850;}
</style>
<g>
	<path class="st0" d="M240.3,518.2c-0.6,0-1.1-0.5-1.1-1.1v-12.3h-48.5v12.3c0,0.6-0.5,1.1-1.1,1.1s-1.1-0.5-1.1-1.1v-13.4
		c0-0.6,0.5-1.1,1.1-1.1h50.6c0.6,0,1.1,0.5,1.1,1.1v13.4C241.4,517.7,240.9,518.2,240.3,518.2z"/>
</g>
<g>
	<path class="st1" d="M247,540.5h-63.9c-0.6,0-1.1-0.5-1.1-1.1v-12.6c0-6.3,5.2-11.5,11.5-11.5h43c6.3,0,11.5,5.2,11.5,11.5v12.6
		C248.1,540,247.6,540.5,247,540.5z M184.2,538.4h61.8v-11.5c0-5.2-4.2-9.4-9.4-9.4h-43c-5.2,0-9.4,4.2-9.4,9.4V538.4z"/>
</g>
<g>
	<path class="st1" d="M207.3,517.5h-11.7c-0.6,0-1.1-0.5-1.1-1.1c0-2.9,2.4-5.3,5.3-5.3h3.3c2.9,0,5.3,2.4,5.3,5.3
		C208.4,517,207.9,517.5,207.3,517.5z M196.8,515.4h9.3c-0.4-1.2-1.6-2.1-3-2.1h-3.3C198.4,513.2,197.2,514.1,196.8,515.4z"/>
</g>
<g>
	<path class="st1" d="M234.5,517.5h-11.7c-0.6,0-1.1-0.5-1.1-1.1c0-2.9,2.4-5.3,5.3-5.3h3.3c2.9,0,5.3,2.4,5.3,5.3
		C235.6,517,235.1,517.5,234.5,517.5z M224,515.4h9.3c-0.4-1.2-1.6-2.1-3-2.1H227C225.6,513.2,224.4,514.1,224,515.4z"/>
</g>
<g>
	<path class="st1" d="M234.5,529h-51.4c-0.6,0-1.1-0.5-1.1-1.1s0.5-1.1,1.1-1.1h51.4c0.6,0,1.1,0.5,1.1,1.1S235.1,529,234.5,529z"/>
</g>
<g>
	<path class="st1" d="M247,529h-5.5c-0.6,0-1.1-0.5-1.1-1.1s0.5-1.1,1.1-1.1h5.5c0.6,0,1.1,0.5,1.1,1.1S247.6,529,247,529z"/>
</g>
</svg>
