<svg xmlns="http://www.w3.org/2000/svg" width="18" height="21" viewBox="0 0 18 21">
  <g id="calculator" transform="translate(-4.5 -2.25)">
    <path id="Tracé_240" data-name="Tracé 240" d="M21,3.75v18H6v-18H21m0-1.5H6a1.5,1.5,0,0,0-1.5,1.5v18A1.5,1.5,0,0,0,6,23.25H21a1.5,1.5,0,0,0,1.5-1.5v-18A1.5,1.5,0,0,0,21,2.25Z" fill="#a29f78"/>
    <path id="Tracé_241" data-name="Tracé 241" d="M10.125,25.875h1.5v1.5h-1.5Z" transform="translate(-1.875 -7.875)" fill="#a29f78"/>
    <path id="Tracé_242" data-name="Tracé 242" d="M23.625,25.875h1.5v1.5h-1.5Z" transform="translate(-6.375 -7.875)" fill="#a29f78"/>
    <path id="Tracé_243" data-name="Tracé 243" d="M10.125,20.25h1.5v1.5h-1.5Z" transform="translate(-1.875 -6)" fill="#a29f78"/>
    <path id="Tracé_244" data-name="Tracé 244" d="M23.625,20.25h1.5v1.5h-1.5Z" transform="translate(-6.375 -6)" fill="#a29f78"/>
    <path id="Tracé_245" data-name="Tracé 245" d="M10.125,14.625h1.5v1.5h-1.5Z" transform="translate(-1.875 -4.125)" fill="#a29f78"/>
    <path id="Tracé_246" data-name="Tracé 246" d="M16.875,25.875h1.5v1.5h-1.5Z" transform="translate(-4.125 -7.875)" fill="#a29f78"/>
    <path id="Tracé_247" data-name="Tracé 247" d="M16.875,20.25h1.5v1.5h-1.5Z" transform="translate(-4.125 -6)" fill="#a29f78"/>
    <path id="Tracé_248" data-name="Tracé 248" d="M16.875,14.625h1.5v1.5h-1.5Z" transform="translate(-4.125 -4.125)" fill="#a29f78"/>
    <path id="Tracé_249" data-name="Tracé 249" d="M23.625,14.625h1.5v1.5h-1.5Z" transform="translate(-6.375 -4.125)" fill="#a29f78"/>
    <path id="Tracé_250" data-name="Tracé 250" d="M10.125,7.875h10.5v2.25h-10.5Z" transform="translate(-1.875 -1.875)" fill="#a29f78"/>
  </g>
</svg>
