<?xml version="1.0" encoding="utf-8"?>
<!-- Generator: Adobe Illustrator 25.0.0, SVG Export Plug-In . SVG Version: 6.00 Build 0)  -->
<svg version="1.1" id="Capa_1" xmlns="http://www.w3.org/2000/svg" xmlns:xlink="http://www.w3.org/1999/xlink" x="0px" y="0px"
	 viewBox="0 0 512 512" style="enable-background:new 0 0 512 512;" xml:space="preserve">
<style type="text/css">
	.st0{fill:#FFFFFF;}
	.st1{fill:#FFD600;}
	.st2{fill:#002850;}
</style>
<g>
	<g>
		<path class="st0" d="M400.9,217.1h-45.4c-4,0-7.3,3.3-7.3,7.3s3.3,7.3,7.3,7.3h27.8l-60.7,60.7l-16.1-16.1
			c-1.4-1.4-3.2-2.1-5.2-2.1s-3.8,0.8-5.2,2.1L246,326.4l-24.3-24.3c-1.4-1.4-3.2-2.1-5.2-2.1s-3.8,0.8-5.2,2.1l-89.7,89.7
			c-2.8,2.8-2.8,7.5,0,10.3c1.4,1.4,3.3,2.1,5.2,2.1s3.7-0.7,5.2-2.1l84.6-84.6l24.3,24.3c1.4,1.4,3.2,2.1,5.2,2.1
			c1.9,0,3.8-0.8,5.2-2.1l50.1-50.1l16.1,16.1c2.8,2.8,7.5,2.8,10.3,0l65.9-65.9v28c0,4,3.3,7.3,7.3,7.3s7.3-3.3,7.3-7.3v-45.6
			C408.2,220.3,405,217.1,400.9,217.1z"/>
	</g>
</g>
<g>
	<g>
		<path class="st1" d="M408,411.9H111.2V206.7c0-4-3.3-7.3-7.3-7.3s-7.3,3.3-7.3,7.3v212.4c0,4,3.3,7.3,7.3,7.3H408
			c4,0,7.3-3.3,7.3-7.3C415.3,415.1,412.1,411.9,408,411.9z"/>
	</g>
</g>
<g>
	<g>
		<path class="st2" d="M489.9,444.9h-41.4V209.5l23.3,15.5c8.6,5.7,19.6,5.7,28.2,0c7.1-4.7,11.4-12.7,11.4-21.2
			s-4.2-16.5-11.4-21.2l-56-37.2c-3.4-2.2-7.9-1.3-10.1,2c-2.2,3.4-1.3,7.9,2,10.1l56,37.2c3.1,2.1,4.9,5.4,4.9,9.1s-1.8,7-4.9,9.1
			c-3.7,2.4-8.4,2.4-12.1,0L263.2,68.7c-4.4-2.9-10-2.9-14.3,0L32.1,212.9c-3.7,2.4-8.4,2.4-12.1,0c-3.1-2.1-4.9-5.4-4.9-9.1
			s1.8-7,4.9-9.1L256,37.8l142.3,94.7c3.4,2.2,7.9,1.3,10.1-2c2.2-3.4,1.3-7.9-2-10.1L263.2,25c-4.4-2.9-10-2.9-14.3,0L178,72.1
			v-6.3h2.1c5.2,0,9.5-4.2,9.5-9.5V34.2c0-5.2-4.2-9.5-9.5-9.5H103c-5.2,0-9.5,4.2-9.5,9.5v22.1c0,5.2,4.2,9.5,9.5,9.5h2.1v54.8
			l-93.2,62c-7.1,4.7-11.4,12.7-11.4,21.2S4.9,220.3,12,225c4.3,2.9,9.2,4.3,14.1,4.3s9.8-1.4,14.1-4.3l23.3-15.5v129.9
			c0,4,3.3,7.3,7.3,7.3s7.3-3.3,7.3-7.3V199.8L256,81.5l177.9,118.4V445H78.1v-60.3c0-4-3.3-7.3-7.3-7.3s-7.3,3.3-7.3,7.3V445H22.1
			C9.9,444.9,0,454.9,0,467s9.9,22.1,22.1,22.1h467.8c12.2,0,22.1-9.9,22.1-22.1S502.1,444.9,489.9,444.9z M163.5,81.8l-43.7,29.1
			V65.8h43.7V81.8z M108.2,39.3H175v11.9h-66.9L108.2,39.3L108.2,39.3z M489.9,474.6H22.1c-4.1,0-7.5-3.4-7.5-7.5s3.4-7.5,7.5-7.5
			h467.8c4.1,0,7.5,3.4,7.5,7.5S494.1,474.6,489.9,474.6z"/>
	</g>
</g>
</svg>
