<svg xmlns="http://www.w3.org/2000/svg" width="24.986" height="29.15" viewBox="0 0 24.986 29.15">
  <g id="file-earmark-medical" transform="translate(-4.5 -2.25)">
    <path id="Tracé_221" data-name="Tracé 221" d="M8.664,2.25H19.075V4.332H8.664A2.082,2.082,0,0,0,6.582,6.414V27.236a2.082,2.082,0,0,0,2.082,2.082H25.322A2.082,2.082,0,0,0,27.4,27.236V12.661h2.082V27.236A4.164,4.164,0,0,1,25.322,31.4H8.664A4.164,4.164,0,0,1,4.5,27.236V6.414A4.164,4.164,0,0,1,8.664,2.25Z" transform="translate(0 0)" fill="#002850"/>
    <path id="Tracé_222" data-name="Tracé 222" d="M20.25,9.538V2.25L30.661,12.661H23.373A3.123,3.123,0,0,1,20.25,9.538Z" transform="translate(-1.175 0)" fill="#002850"/>
    <path id="Tracé_223" data-name="Tracé 223" d="M15.414,9a1.041,1.041,0,0,1,1.041,1.041v1.321L17.6,10.7a1.041,1.041,0,1,1,1.041,1.8l-1.143.66,1.143.66a1.041,1.041,0,1,1-1.041,1.8l-1.143-.66v1.321a1.041,1.041,0,0,1-2.082,0V14.967l-1.143.66a1.041,1.041,0,1,1-1.041-1.8l1.143-.66-1.143-.66a1.041,1.041,0,1,1,1.041-1.8l1.143.66V10.041A1.041,1.041,0,0,1,15.414,9ZM11.25,20.452a1.041,1.041,0,0,1,1.041-1.041H22.7a1.041,1.041,0,1,1,0,2.082H12.291A1.041,1.041,0,0,1,11.25,20.452Zm0,4.164a1.041,1.041,0,0,1,1.041-1.041H22.7a1.041,1.041,0,1,1,0,2.082H12.291A1.041,1.041,0,0,1,11.25,24.616Z" transform="translate(-0.504 -0.504)" fill="#002850" fill-rule="evenodd"/>
  </g>
</svg>
