<svg id="file-earmark-medical" xmlns="http://www.w3.org/2000/svg" width="17.143" height="20" viewBox="0 0 17.143 20">
  <path id="Tracé_221" data-name="Tracé 221" d="M7.357,2.25H14.5V3.679H7.357A1.429,1.429,0,0,0,5.929,5.107V19.393a1.429,1.429,0,0,0,1.429,1.429H18.786a1.429,1.429,0,0,0,1.429-1.429v-10h1.429v10a2.857,2.857,0,0,1-2.857,2.857H7.357A2.857,2.857,0,0,1,4.5,19.393V5.107A2.857,2.857,0,0,1,7.357,2.25Z" transform="translate(-4.5 -2.25)" fill="#fff"/>
  <path id="Tracé_222" data-name="Tracé 222" d="M20.25,7.25v-5l7.143,7.143h-5A2.143,2.143,0,0,1,20.25,7.25Z" transform="translate(-10.25 -2.25)" fill="#fff"/>
  <path id="Tracé_223" data-name="Tracé 223" d="M14.107,9a.714.714,0,0,1,.714.714v.906l.784-.453A.714.714,0,1,1,16.32,11.4l-.784.453.784.453a.714.714,0,1,1-.714,1.237l-.784-.453V14a.714.714,0,0,1-1.429,0v-.906l-.784.453a.714.714,0,1,1-.714-1.237l.784-.453-.784-.453a.714.714,0,1,1,.714-1.237l.784.453V9.714A.714.714,0,0,1,14.107,9ZM11.25,16.857a.714.714,0,0,1,.714-.714h7.143a.714.714,0,1,1,0,1.429H11.964A.714.714,0,0,1,11.25,16.857Zm0,2.857A.714.714,0,0,1,11.964,19h7.143a.714.714,0,1,1,0,1.429H11.964A.714.714,0,0,1,11.25,19.714Z" transform="translate(-6.964 -4.714)" fill="#fff" fill-rule="evenodd"/>
</svg>
