<svg xmlns="http://www.w3.org/2000/svg" width="84.86" height="85.067" viewBox="0 0 84.86 85.067">
  <g id="_003-search" data-name="003-search" transform="translate(-0.622 0)">
    <g id="Groupe_2908" data-name="Groupe 2908" transform="translate(0.622 -0.001)">
      <g id="Groupe_2907" data-name="Groupe 2907" transform="translate(0)">
        <path id="Tracé_4383" data-name="Tracé 4383" d="M63,27.611A31.1,31.1,0,0,0,54.029,9.185a31.449,31.449,0,0,0-44.425,0A31.1,31.1,0,0,0,.631,27.605a1.243,1.243,0,0,0,2.469.3,28.634,28.634,0,0,1,8.262-16.96,28.959,28.959,0,0,1,40.908,0A28.632,28.632,0,0,1,60.533,27.91,1.244,1.244,0,0,0,61.766,29a1.285,1.285,0,0,0,.151-.009A1.244,1.244,0,0,0,63,27.611Z" transform="translate(-0.622 0.001)" fill="#fff"/>
      </g>
    </g>
    <g id="Groupe_2910" data-name="Groupe 2910" transform="translate(5.831 5.413)">
      <g id="Groupe_2909" data-name="Groupe 2909">
        <path id="Tracé_4384" data-name="Tracé 4384" d="M76.342,40.186a25.985,25.985,0,1,0,0,36.766A26.027,26.027,0,0,0,76.342,40.186ZM74.583,75.193A23.51,23.51,0,1,1,81.47,58.569,23.537,23.537,0,0,1,74.583,75.193Z" transform="translate(-31.974 -32.584)" fill="#fff"/>
      </g>
    </g>
    <g id="Groupe_2912" data-name="Groupe 2912" transform="translate(0.682 34.261)">
      <g id="Groupe_2911" data-name="Groupe 2911" transform="translate(0)">
        <path id="Tracé_4385" data-name="Tracé 4385" d="M84.654,246.5,65.1,226.946a3.86,3.86,0,0,0-4.442-.722l-3.673-3.674a31.079,31.079,0,0,0,6.249-14.89,1.243,1.243,0,0,0-2.463-.339,28.617,28.617,0,0,1-6.383,14.492l-.028.03c-.431.517-.877,1.017-1.331,1.493h0q-.227.238-.457.468c-.162.162-.326.321-.491.479-.107.1-.217.2-.327.305l-.159.147q-.207.189-.42.374l-.076.067q-.219.19-.442.377A28.965,28.965,0,0,1,11.661,223.8a28.668,28.668,0,0,1-8.205-16.517,1.243,1.243,0,0,0-2.464.337,31.435,31.435,0,0,0,50.321,20.593l3.675,3.675a3.849,3.849,0,0,0,.723,4.443l19.554,19.554a3.855,3.855,0,0,0,5.452,0l3.938-3.937h0A3.86,3.86,0,0,0,84.654,246.5ZM53.225,226.613q.282-.257.56-.521l.076-.074c.157-.15.313-.3.467-.455q.266-.266.524-.538l.014-.015q.259-.272.511-.55l3.378,3.378L56.6,229.991ZM82.9,250.193l-3.938,3.938a1.368,1.368,0,0,1-1.935,0L57.469,234.577a1.369,1.369,0,0,1,0-1.935l.013-.013,3.924-3.924a1.37,1.37,0,0,1,1.935,0L82.9,248.258A1.37,1.37,0,0,1,82.9,250.193Z" transform="translate(-0.98 -206.213)" fill="#fff"/>
      </g>
    </g>
    <g id="Groupe_2914" data-name="Groupe 2914" transform="translate(11.434 9.956)">
      <g id="Groupe_2913" data-name="Groupe 2913">
        <path id="Tracé_4386" data-name="Tracé 4386" d="M106.6,77.545,88.728,60.752a3.065,3.065,0,0,0-4.189,0L66.662,77.545a3.059,3.059,0,0,0,2,5.288h.1A3.038,3.038,0,0,0,70.851,82l1.315-1.235V96.062a2.149,2.149,0,0,0,2.147,2.147h24.64a2.149,2.149,0,0,0,2.147-2.147V80.769L102.415,82a3.059,3.059,0,1,0,4.189-4.46ZM89.361,95.722H83.906V81.567h5.455Zm9.252,0H91.848V80.9a1.822,1.822,0,0,0-1.82-1.82H83.239a1.822,1.822,0,0,0-1.82,1.82V95.722H74.653V78.434L86.633,67.18l11.98,11.254Zm6.314-15.555a.573.573,0,0,1-.809.025L87.485,64.567a1.243,1.243,0,0,0-1.7,0L69.149,80.193a.573.573,0,0,1-.784-.835L86.241,62.565a.573.573,0,0,1,.784,0L104.9,79.358a.572.572,0,0,1,.025.809Z" transform="translate(-65.699 -59.925)" fill="#fff"/>
      </g>
    </g>
  </g>
</svg>
