<svg xmlns="http://www.w3.org/2000/svg" width="64.465" height="89.89" viewBox="0 0 64.465 89.89">
  <g id="_005-real-estate" data-name="005-real-estate" transform="translate(-72.407)">
    <g id="Groupe_2936" data-name="Groupe 2936" transform="translate(72.407 0)">
      <g id="Groupe_2935" data-name="Groupe 2935" transform="translate(0 0)">
        <path id="Tracé_4397" data-name="Tracé 4397" d="M135.1,29.646a6.283,6.283,0,0,0-2.788-10.4,3.711,3.711,0,0,1-2.587-4.482,6.283,6.283,0,0,0-7.616-7.617,3.71,3.71,0,0,1-4.481-2.587,6.283,6.283,0,0,0-10.4-2.788,3.711,3.711,0,0,1-5.175,0,6.283,6.283,0,0,0-10.4,2.788,3.711,3.711,0,0,1-4.482,2.587A6.283,6.283,0,0,0,79.55,14.76a3.711,3.711,0,0,1-2.587,4.482,6.283,6.283,0,0,0-2.788,10.4,3.711,3.711,0,0,1,0,5.175,6.283,6.283,0,0,0,2.788,10.4,3.711,3.711,0,0,1,2.587,4.482,6.287,6.287,0,0,0,5.7,7.794l-3.968,7.21a1.279,1.279,0,0,0,2.241,1.234l4.8-8.723.07.007a3.7,3.7,0,0,1,.484.073l.015,0c.078.018.154.039.23.061l.065.019q.113.036.222.078l.051.021a3.725,3.725,0,0,1,.918.535l.027.021c.064.051.125.105.186.161l.042.04c.058.056.116.113.171.172l.021.024a3.7,3.7,0,0,1,.282.356c.018.026.038.051.055.078.031.047.06.1.089.145s.057.095.083.144.046.088.068.133q.045.093.086.189c.016.037.032.073.047.111.04.1.077.211.109.32a6.233,6.233,0,0,0,4.413,4.337h0c.124.033.248.061.372.087l.124.023c.086.016.171.03.257.042l.138.018c.085.01.17.018.256.025l.125.01c.124.007.248.012.371.012h0c.105,0,.21,0,.315-.008l.086-.006c.076,0,.151-.01.227-.018l.112-.014c.066-.008.132-.016.2-.026l.121-.021c.062-.011.124-.022.186-.034l.126-.028c.06-.014.119-.028.179-.043l.127-.034.174-.052.126-.041.171-.061.124-.047c.057-.022.113-.046.17-.07l.119-.051c.058-.026.115-.054.172-.082l.11-.054c.062-.032.123-.066.184-.1l.093-.051q.133-.077.262-.161l.007,0,2.084,3.786L92.869,85.98,89.7,75.614a1.64,1.64,0,0,0-2.014-1.108l-10.453,2.87,2.419-4.4a1.279,1.279,0,0,0-2.241-1.234L74.048,77.86a1.79,1.79,0,0,0,.129,1.977,1.618,1.618,0,0,0,1.726.557l11.61-3.188,3.519,11.514a1.618,1.618,0,0,0,1.394,1.16,1.681,1.681,0,0,0,.173.009,1.8,1.8,0,0,0,1.566-.958L104.64,69.9l10.476,19.033a1.8,1.8,0,0,0,1.566.958,1.691,1.691,0,0,0,.173-.009,1.617,1.617,0,0,0,1.394-1.16l3.519-11.514,11.611,3.188a1.619,1.619,0,0,0,1.726-.557,1.79,1.79,0,0,0,.128-1.977L124.027,57.5a6.288,6.288,0,0,0,5.7-7.794,3.711,3.711,0,0,1,2.587-4.482,6.283,6.283,0,0,0,2.788-10.4A3.711,3.711,0,0,1,135.1,29.646Zm-3.059,47.73-10.452-2.87a1.641,1.641,0,0,0-2.014,1.108L116.411,85.98,103.185,61.948h0c.079-.033.158-.064.239-.091l.026-.009a3.733,3.733,0,0,1,2.364,0l.011,0a3.7,3.7,0,0,1,.64.287c.042.024.084.047.125.072s.085.055.127.083.109.076.162.116c.032.024.065.048.1.074.085.069.169.141.25.219a6.393,6.393,0,0,0,.8.653,6.222,6.222,0,0,0,5.19.9q.2-.054.4-.12a6.228,6.228,0,0,0,4.016-4.217c.032-.11.069-.217.109-.321.014-.036.03-.071.045-.107q.041-.1.088-.193c.022-.044.044-.088.067-.13s.055-.1.084-.146.057-.1.088-.144c.018-.027.038-.053.057-.08a3.715,3.715,0,0,1,.281-.354l.021-.024c.055-.06.112-.117.171-.173l.041-.039c.06-.056.122-.11.186-.161l.027-.021a3.725,3.725,0,0,1,.918-.535l.052-.021q.109-.042.222-.078l.067-.02c.075-.022.151-.043.228-.061l.02,0a3.723,3.723,0,0,1,.476-.072l.073-.007Zm2.138-37.226a3.7,3.7,0,0,1-2.571,2.616,6.26,6.26,0,0,0-4.365,7.56,3.724,3.724,0,0,1-4.515,4.515,6.256,6.256,0,0,0-7.028,3.071h0q-.062.113-.119.229l-.022.045c-.032.066-.063.133-.093.2-.013.03-.025.06-.038.09-.024.056-.048.113-.07.17s-.036.1-.054.146-.031.084-.046.127c-.032.094-.062.189-.089.285a3.694,3.694,0,0,1-2.616,2.571q-.118.032-.237.055A3.693,3.693,0,0,1,109,60.857q-.11-.106-.224-.206c-.046-.041-.094-.079-.141-.119l-.085-.071c-.071-.057-.142-.111-.215-.164l-.013-.01a6.246,6.246,0,0,0-7.655.218l0,0-.022.018c-.057.047-.114.095-.17.144s-.137.123-.2.185A3.69,3.69,0,0,1,97.2,61.872a3.829,3.829,0,0,1-.479-.1A3.7,3.7,0,0,1,94.108,59.2q-.042-.145-.09-.286c-.014-.041-.029-.081-.044-.122s-.036-.1-.055-.151-.045-.111-.069-.167c-.013-.031-.026-.062-.04-.093-.029-.067-.061-.133-.092-.2L93.7,58.14a6.256,6.256,0,0,0-7.148-3.3,3.724,3.724,0,0,1-4.515-4.515,6.259,6.259,0,0,0-4.365-7.56A3.725,3.725,0,0,1,76.016,36.6a6.26,6.26,0,0,0,0-8.729A3.725,3.725,0,0,1,77.669,21.7a6.26,6.26,0,0,0,4.365-7.56,3.724,3.724,0,0,1,4.515-4.515,6.26,6.26,0,0,0,7.56-4.365,3.725,3.725,0,0,1,6.168-1.652,6.259,6.259,0,0,0,8.729,0,3.724,3.724,0,0,1,6.168,1.652,6.259,6.259,0,0,0,7.56,4.365,3.724,3.724,0,0,1,4.515,4.515,6.26,6.26,0,0,0,4.365,7.56,3.724,3.724,0,0,1,1.653,6.168,6.259,6.259,0,0,0,0,8.729A3.7,3.7,0,0,1,134.183,40.149Z" transform="translate(-72.407 0)" fill="#fff"/>
      </g>
    </g>
    <g id="Groupe_2938" data-name="Groupe 2938" transform="translate(79.646 7.239)">
      <g id="Groupe_2937" data-name="Groupe 2937" transform="translate(0)">
        <path id="Tracé_4398" data-name="Tracé 4398" d="M138.63,41.23a24.995,24.995,0,1,0,24.994,24.995A25.023,25.023,0,0,0,138.63,41.23Zm0,47.431a22.436,22.436,0,1,1,22.436-22.436A22.461,22.461,0,0,1,138.63,88.661Z" transform="translate(-113.635 -41.23)" fill="#fff"/>
      </g>
    </g>
    <g id="Groupe_2940" data-name="Groupe 2940" transform="translate(86.694 13.736)">
      <g id="Groupe_2939" data-name="Groupe 2939">
        <path id="Tracé_4399" data-name="Tracé 4399" d="M188.65,92.93l-4.462-4.18a1.279,1.279,0,0,0-1.749,1.867L186.9,94.8a.68.68,0,0,1-.929.992L172.563,83.227a1.279,1.279,0,0,0-1.752,0L157.487,95.781a.68.68,0,1,1-.932-.99l14.663-13.813a.681.681,0,0,1,.931,0l4.444,4.163a1.279,1.279,0,0,0,1.749-1.867L173.9,79.11a3.244,3.244,0,0,0-4.434.006L154.8,92.929a3.238,3.238,0,0,0,4.217,4.9l.017,12.054a2.061,2.061,0,0,0,2.059,2.056h0l21.266-.03a2.061,2.061,0,0,0,2.056-2.062L184.4,97.809a3.237,3.237,0,0,0,4.248-4.879Zm-19.072,16.444-.017-11.8,4.3-.006.016,11.8Zm6.855-.009-.018-12.586A1.777,1.777,0,0,0,174.639,95h0l-5.859.008A1.777,1.777,0,0,0,167,96.791l.018,12.586-5.427.008-.02-13.938,10.117-9.53,10.15,9.509.019,13.932Z" transform="translate(-153.783 -78.237)" fill="#fff"/>
      </g>
    </g>
  </g>
</svg>
