<svg xmlns="http://www.w3.org/2000/svg" width="40.693" height="40.693" viewBox="0 0 40.693 40.693">
  <path id="add-filled" d="M22.6,2.25A20.6,20.6,0,0,0,2.25,22.6,20.6,20.6,0,0,0,22.6,42.943,20.6,20.6,0,0,0,42.943,22.6,20.6,20.6,0,0,0,22.6,2.25Zm11.626,21.8H24.05V34.223H21.143V24.05H10.97V21.143H21.143V10.97H24.05V21.143H34.223Z" transform="translate(-2.25 -2.25)" fill="#a29f78"/>
</svg>
