<svg xmlns="http://www.w3.org/2000/svg" width="30.643" height="42" viewBox="0 0 30.643 42">
  <path id="Icon_material-mouse" data-name="Icon material-mouse" d="M23.237,1.605V16.792H36.643A15.3,15.3,0,0,0,23.237,1.6ZM6,28.284a15.321,15.321,0,1,0,30.643,0V20.623H6ZM19.406,1.6A15.3,15.3,0,0,0,6,16.792H19.406V1.605Z" transform="translate(-6 -1.605)" fill="#002850"/>
</svg>
