<svg xmlns="http://www.w3.org/2000/svg" width="42.85" height="42.75" viewBox="0 0 42.85 42.75">
  <path id="account-circle" d="M21.426.25A20.645,20.645,0,0,1,36.578,6.522a20.588,20.588,0,0,1,6.272,15.1,20.588,20.588,0,0,1-6.272,15.1A20.645,20.645,0,0,1,21.426,43,20.645,20.645,0,0,1,6.273,36.728,20.592,20.592,0,0,1,0,21.625a20.581,20.581,0,0,1,6.272-15.1A20.649,20.649,0,0,1,21.426.25Zm0,6.422a6.313,6.313,0,0,0-4.566,1.857,6.067,6.067,0,0,0-1.906,4.516,6.232,6.232,0,0,0,1.906,4.566,6.223,6.223,0,0,0,4.566,1.906,6.071,6.071,0,0,0,4.516-1.906A6.317,6.317,0,0,0,27.8,13.045a6.34,6.34,0,0,0-6.373-6.373Zm0,30.407a14.9,14.9,0,0,0,7.325-1.857,15.3,15.3,0,0,0,5.47-5.067q0-2.007-2.358-3.562a17.515,17.515,0,0,0-5.218-2.309,20.586,20.586,0,0,0-5.218-.753,20.731,20.731,0,0,0-5.218.753,17.434,17.434,0,0,0-5.218,2.309A4.664,4.664,0,0,0,8.53,30.155a15.373,15.373,0,0,0,12.895,6.924Z" transform="translate(0 -0.25)" fill="#fff"/>
</svg>
