<svg xmlns="http://www.w3.org/2000/svg" width="27.727" height="19.063" viewBox="0 0 27.727 19.063">
  <g id="eye-fill" transform="translate(0 -5.625)">
    <path id="Tracé_214" data-name="Tracé 214" d="M21.04,16.707a4.332,4.332,0,1,1-4.332-4.332,4.332,4.332,0,0,1,4.332,4.332Z" transform="translate(-2.844 -1.551)" fill="#bbb283"/>
    <path id="Tracé_215" data-name="Tracé 215" d="M0,15.156S5.2,5.625,13.864,5.625s13.864,9.531,13.864,9.531-5.2,9.531-13.864,9.531S0,15.156,0,15.156Zm13.864,6.065A6.065,6.065,0,1,0,7.8,15.156,6.065,6.065,0,0,0,13.864,21.222Z" transform="translate(0 0)" fill="#bbb283" fill-rule="evenodd"/>
  </g>
</svg>
