<?xml version="1.0" encoding="utf-8"?>
<!-- Generator: Adobe Illustrator 21.0.0, SVG Export Plug-In . SVG Version: 6.00 Build 0)  -->
<svg version="1.1" id="Capa_1" xmlns="http://www.w3.org/2000/svg" xmlns:xlink="http://www.w3.org/1999/xlink" x="0px" y="0px"
	 viewBox="0 0 23 23" style="enable-background:new 0 0 23 23;" xml:space="preserve" width="23px" height="23px">
<style type="text/css">
	.st0{fill:#A29F78;}
</style>
<g>
	<path class="st0" d="M1.3,4h1.3V2.7H4V1.3H2.7V0H1.3v1.3H0v1.3h1.3V4z"/>
	<path class="st0" d="M21.7,0h-1.3v1.3H19v1.3h1.3V4h1.3V2.7H23V1.3h-1.3V0z"/>
	<path class="st0" d="M14.9,3.1L11.5,0L0,10.8h2.7v10.8H0V23h23v-1.3h-2.7V10.8H23l-4-3.9V2.7h-4V3.1z M16.3,4h1.3v3.4l2.1,2H19
		v12.2H4V9.5H3.4l8.1-7.6l4.7,4.2V4z"/>
	<path class="st0" d="M6.7,18.9h9.5V9.5H6.7V18.9z M12.2,10.8h2.7v2.7h-2.7V10.8z M12.2,14.9h2.7v2.7h-2.7V14.9z M8.1,10.8h2.7v2.7
		H8.1V10.8z M8.1,14.9h2.7v2.7H8.1V14.9z"/>
</g>
</svg>
