<?xml version="1.0" encoding="utf-8"?>
<!-- Generator: Adobe Illustrator 25.0.0, SVG Export Plug-In . SVG Version: 6.00 Build 0)  -->
<svg version="1.1" id="Capa_1" xmlns="http://www.w3.org/2000/svg" xmlns:xlink="http://www.w3.org/1999/xlink" x="0px" y="0px"
	 viewBox="0 0 512 512" style="enable-background:new 0 0 512 512;" xml:space="preserve">
<style type="text/css">
	.st0{fill:#002850;}
	.st1{fill:#FFD600;}
	.st2{fill:#FFFFFF;}
</style>
<g>
	<path class="st0" d="M74.7,313.3c1,0.4,2,0.6,3,0.6c2.9,0,5.7-1.7,6.9-4.5l77.7-176.9l17.9,17.9c1.5,1.5,3.4,2.2,5.3,2.2
		s3.9-0.7,5.3-2.2c2.9-2.9,2.9-7.7,0-10.7l-22-22l17.1-38.9l204.7,204.7c1.5,1.5,3.4,2.2,5.3,2.2s3.9-0.7,5.3-2.2
		c2.9-2.9,2.9-7.7,0-10.7L187,58.7c-2.9-2.9-4.5-6.8-4.5-10.9s1.6-8,4.5-10.9l3.3-3.3c6-6,15.8-6,21.8,0L231.5,53
		c2.9,2.9,7.7,2.9,10.7,0c2.9-2.9,2.9-7.7,0-10.7l-19.4-19.4c-11.9-11.9-31.2-11.9-43.1,0l-3.3,3.3c-5.8,5.8-8.9,13.4-8.9,21.5
		c0,7.2,2.5,14.1,7.1,19.6L70.8,303.4C69.2,307.2,70.9,311.7,74.7,313.3L74.7,313.3z"/>
	<path class="st0" d="M264.8,65c-2.9-2.9-7.7-2.9-10.7,0c-2.9,2.9-2.9,7.7,0,10.7l221.5,221.5c2.9,2.9,4.5,6.8,4.5,10.9
		s-1.6,8-4.5,10.9l-3.3,3.3c-2.9,2.9-6.8,4.5-10.9,4.5s-8-1.6-10.9-4.5L424,295.8c-2.9-2.9-7.7-2.9-10.7,0c-2.9,2.9-2.9,7.7,0,10.7
		l16.9,16.9l-38.9,17.1l-177-177c-2.9-2.9-7.7-2.9-10.7,0c-2.9,2.9-2.9,7.7,0,10.7l172.9,172.9l-253.1,111c-0.4-0.4-0.7-0.8-1.1-1.2
		l-70-70c-0.4-0.4-0.8-0.8-1.2-1.1l20.3-46.2c1.7-3.8-0.1-8.3-3.9-9.9c-3.8-1.7-8.3,0.1-9.9,3.9L37.2,380c-0.8-0.1-1.5-0.1-2.3-0.1
		c-6.5,0-12.7,2.5-17.3,7.2l-9.3,9.3c-9.5,9.5-9.5,25.1,0,34.6l70,70l0,0c4.6,4.6,10.8,7.2,17.3,7.2c6.5,0,12.7-2.5,17.3-7.2
		l9.3-9.3c5.3-5.3,7.7-12.6,7.1-19.6l14.4-6.3l7.5,15.4c2.7,5.5,6.3,10.5,10.6,14.8c10.6,10.6,24.6,16.2,38.8,16.2
		c7.4,0,14.9-1.5,22-4.6l43.7-18.9c27.3-11.8,40.4-43.8,29.2-71.4l-6.3-15.4l152.5-67c5.6,4.7,12.6,7.1,19.6,7.1
		c7.8,0,15.6-3,21.5-8.9l3.3-3.3c5.8-5.8,8.9-13.4,8.9-21.5s-3.2-15.8-8.9-21.5L264.8,65z M111.7,480.8l-9.3,9.3
		c-1.8,1.8-4.1,2.8-6.7,2.8c-2.5,0-4.9-1-6.7-2.8l0,0l-70-70c-3.7-3.7-3.7-9.6,0-13.3l9.3-9.3c1.8-1.8,4.1-2.8,6.7-2.8
		c2.5,0,4.9,1,6.7,2.8l70,70C115.3,471.2,115.3,477.2,111.7,480.8L111.7,480.8z M247.4,436.7c0.6,1.5-0.1,3.4-1.7,4.1L202,459.7
		c-1.5,0.7-3.3,0-4.1-1.5l-6.6-13.5l50.3-22.1L247.4,436.7z M281.6,422.8c8.2,20-1.4,43.3-21.2,51.9l-43.7,18.9
		c-15.2,6.6-32.5,3.3-44.2-8.4c-3.1-3.1-5.7-6.8-7.7-10.8l-7.3-14.8l20-8.8l6.9,14c3.2,6.4,9.6,10.2,16.4,10.2
		c2.4,0,4.9-0.5,7.2-1.5l43.7-18.9c9-3.9,13.4-14.5,9.6-23.6l-5.9-14.5l20-8.8L281.6,422.8z"/>
	<path class="st1" d="M376.6,141.6c1.9,0,3.9-0.7,5.3-2.2l8.3-8.3c2.9-2.9,2.9-7.7,0-10.7c-2.9-2.9-7.7-2.9-10.7,0l-8.3,8.3
		c-2.9,2.9-2.9,7.7,0,10.7C372.8,140.9,374.7,141.6,376.6,141.6z"/>
	<path class="st1" d="M416.2,100.6c1.9,0,3.9-0.7,5.3-2.2l35.1-35.1c2.9-2.9,2.9-7.7,0-10.7c-2.9-2.9-7.7-2.9-10.7,0l-35.1,35.1
		c-2.9,2.9-2.9,7.7,0,10.7C412.3,99.8,414.2,100.6,416.2,100.6z"/>
	<path class="st1" d="M334.9,64.6c0.2,0,0.4,0,0.6,0c3.9,0,7.2-3,7.5-6.9l4-49.6c0.3-4.1-2.8-7.8-6.9-8.1s-7.8,2.8-8.1,6.9l-4,49.6
		C327.7,60.6,330.8,64.3,334.9,64.6L334.9,64.6z"/>
	<path class="st1" d="M510.7,170.7c-0.3-4.1-4-7.2-8.1-6.9l-49.5,3.9c-4.1,0.3-7.2,4-6.9,8.1c0.3,3.9,3.6,6.9,7.5,6.9
		c0.2,0,0.4,0,0.6,0l49.5-3.9C508,178.5,511.1,174.8,510.7,170.7L510.7,170.7z"/>
</g>
<path class="st2" d="M111.7,480.8l-9.3,9.3c-1.8,1.8-4.1,2.8-6.7,2.8c-2.5,0-4.9-1-6.7-2.8l0,0l-70-70c-3.7-3.7-3.7-9.6,0-13.3
	l9.3-9.3c1.8-1.8,4.1-2.8,6.7-2.8c2.5,0,4.9,1,6.7,2.8l70,70C115.3,471.2,115.3,477.2,111.7,480.8L111.7,480.8z"/>
</svg>
