<?xml version="1.0" encoding="utf-8"?>
<!-- Generator: Adobe Illustrator 25.0.0, SVG Export Plug-In . SVG Version: 6.00 Build 0)  -->
<svg version="1.1" id="Capa_1" xmlns="http://www.w3.org/2000/svg" xmlns:xlink="http://www.w3.org/1999/xlink" x="0px" y="0px"
	 viewBox="0 0 512 512" style="enable-background:new 0 0 512 512;" xml:space="preserve">
<style type="text/css">
	.st0{fill:none;}
	.st1{fill:#002850;}
	.st2{fill:#FFFFFF;}
	.st3{fill:#FFD600;}
</style>
<g>
	<path class="st0" d="M170.7,264.5H51.2c2.8,46.6,26.2,65.1,51.2,84.6c33.5,26.3,68.3,54.3,52.9,145.7H242c22-38.8,22-71.3,22-119.5
		C212.1,358.4,174.5,315.7,170.7,264.5z"/>
	<rect x="34.1" y="51.2" class="st0" width="110.9" height="196.2"/>
	<path class="st0" d="M179.2,102.4c0-4.7-3.8-8.5-8.5-8.5h-8.5V111h8.5C175.4,110.9,179.2,107.1,179.2,102.4z"/>
	<rect x="17.1" y="17.1" class="st0" width="145.1" height="17.1"/>
	<path class="st0" d="M486.4,230.4H196.2v17.1h290.1c4.7,0,8.5-3.8,8.5-8.5S491.1,230.4,486.4,230.4z"/>
	<path class="st0" d="M349.8,384h-34.1c-11.5,0-22.9-1.3-34.1-3.8c0,43.5-0.8,77-19.7,114.7h141.8c-19-37.7-19.7-71.2-19.7-114.7
		C372.8,382.7,361.3,383.9,349.8,384z"/>
	<path class="st1" d="M510.5,230.4c-3.6-10.3-13.3-17.1-24.2-17.1H187.7c-4.7,0-8.5,3.8-8.5,8.5v25.6h-17.1V128h8.5
		c14.1,0,25.6-11.5,25.6-25.6s-11.5-25.6-25.6-25.6h-8.5V51.2H17V256c0,4.7,3.8,8.5,8.5,8.5H34c2.7,55,31.6,77.8,57.2,98
		c32.4,25.6,63,49.7,45.1,139.2c-0.9,4.6,2,9.1,6.6,10.1c0.6,0.1,1.3,0.2,2,0.2h273c4.7,0,8.5-3.8,8.5-8.5c0-1.5-0.4-3-1.2-4.4
		C401,458.5,401,425.5,401,375.5c52.4-17.1,90.2-60.8,93.9-112.4C508.2,258.4,515.2,243.8,510.5,230.4z M162.1,93.9h8.5
		c4.7,0,8.5,3.8,8.5,8.5s-3.8,8.5-8.5,8.5h-8.5V93.9z M34.1,51.2H145v196.2H34.1V51.2z M155.3,494.9
		c15.4-91.5-19.4-119.5-52.9-145.7c-25-19.5-48.4-38.1-51.2-84.6h119.5c3.8,51.2,41.5,93.9,93.3,110.9c0,48.1,0,80.6-22,119.5h-86.7
		V494.9z M403.7,494.9H261.9c18.9-37.7,19.7-71.2,19.7-114.7c11.2,2.5,22.7,3.7,34.1,3.8h34.1c11.5,0,22.9-1.3,34.1-3.8
		C384,423.7,384.6,457.2,403.7,494.9z M486.4,247.5H196.2v-17.1h290.1c4.7,0,8.5,3.8,8.5,8.5S491.1,247.5,486.4,247.5z"/>
</g>
<path class="st2" d="M349.8,366.9h-34.1c-67.2,0-122.4-45.2-127.5-102.4h289.1C472.3,321.7,417.1,366.9,349.8,366.9z"/>
<path class="st3" d="M170.7,52.2c4.7,0,8.5-3.8,8.5-8.5V9.6c0-4.7-3.8-8.5-8.5-8.5H8.5C3.8,1,0,4.8,0,9.6v34.1
	c0,4.7,3.8,8.5,8.5,8.5H17h145.1C162.1,52.2,170.7,52.2,170.7,52.2z M17.1,18.1h145.1v17.1H17.1V18.1z"/>
</svg>
